{
    "scholarship":{
        "name":"Scholarship",
        "theme_slug":"scholarship",
        "version":"1.1.8",
        "theme_description":"A clean multipurpose WordPress Theme.",
        "xml_file":"https:\/\/gitlab.com\/mysterythemes\/themes-demo-pack\/-\/raw\/main\/scholarship\/scholarship\/scholarship.xml",
        "theme_settings":"https:\/\/gitlab.com\/mysterythemes\/themes-demo-pack\/-\/raw\/main\/scholarship\/scholarship\/scholarship-export.dat",
        "widgets_file":"https:\/\/gitlab.com\/mysterythemes\/themes-demo-pack\/-\/raw\/main\/scholarship\/scholarship\/scholarship-widgets.wie",
        "preview_screen":"https:\/\/gitlab.com\/mysterythemes\/themes-demo-pack\/-\/raw\/main\/scholarship\/scholarship\/screenshot.png",
        "preview_url":"https:\/\/demo.mysterythemes.com\/scholarship\/",
        "is_shop":false,
        "theme_type":[
            "free",
            "business",
            "multipurpose"
        ],
        "show_on_front":"page",
        "home_title":"Home",
        "blog_title":"Blog",
        "customizer_data_update":{
            "nav_menu_locations":{
                "scholarship_primary_menu":"Primary Menu"
            }
        },
        "widgets_data_update":{
            "navigation_menus":{
                "nav_menu":{
                    "2":{
                        "nav_menu":"Pro Themes"
                    }
                }
            },
            "dropdown_categories":{
                "category":{
                    "scholarship_grid_layout":{
                        "2":{
                            "section_cat_id":"Services"
                        }
                    },
                    "scholarship_portfolio":{
                        "2":{
                            "section_cat_id":"Gallery"
                        }
                    },
                    "scholarship_team":{
                        "2":{
                            "section_cat_id":"Teachers"
                        }
                    },
                    "scholarship_testimonials":{
                        "2":{
                            "section_cat_id":"Testimonial"
                        }
                    },
                    "scholarship_sponsors":{
                        "2":{
                            "section_cat_id":"Partners"
                        }
                    }
                }
            },
            "multi_checkbox":{
                "category":{
                    "scholarship_latest_blog":{
                        "2":{
                            "section_cat_ids":[
                                "Blog"
                            ]
                        }
                    }
                }
            }
        },
        "plugins_list":{},
        "is_child_exists":true,
        "child_themes":{
            "scholarship-lms":{
                "name":"Scholarship LMS",
                "theme_slug":"scholarship-lms",
                "parent_slug":"scholarship",
                "theme_description":"A child theme for Scholarship, perfect for customizing educational websites while keeping the original design intact.",
                "xml_file":"https:\/\/gitlab.com\/mysterythemes\/themes-demo-pack\/-\/raw\/main\/scholarship\/scholarship-lms\/scholarship-lms.xml",
                "theme_settings":"https:\/\/gitlab.com\/mysterythemes\/themes-demo-pack\/-\/raw\/main\/scholarship\/scholarship-lms\/scholarship-lms-export.dat",
                "widgets_file":"https:\/\/gitlab.com\/mysterythemes\/themes-demo-pack\/-\/raw\/main\/scholarship\/scholarship-lms\/scholarship-lms-widgets.wie",
                "preview_screen":"https:\/\/gitlab.com\/mysterythemes\/themes-demo-pack\/-\/raw\/main\/scholarship\/scholarship-lms\/screenshot.jpg",
                "preview_url":"https:\/\/demo.mysterythemes.com\/child-theme\/scholarship-lms\/",
                "is_shop":false,  
                    "theme_type":[
                        "child-theme",
                        "free"
                    ],
                "show_on_front":"page",
                "home_title":"Home",
                "blog_title":"",
                "customizer_data_update": {
                    "nav_menu_locations": {
                        "scholarship_primary_menu":"Primary Menu"
                    }
                },
                "plugins_list":{
                    "elementor":{
                        "name":"Elementor",
                        "slug":"elementor/elementor.php",
                        "required":true
                    },
                    "tutor":{
                        "name":"Tutor LMS – eLearning and online course solution",
                        "slug":"tutor/tutor.php",
                        "required":true
                    },
                    "tutor-lms-elementor-addons":{
                        "name":"Tutor LMS Elementor Addons",
                        "slug":"tutor-lms-elementor-addons/tutor-lms-elementor-addons.php",
                        "required":true
                    }
                }
            }
        }
    },
    "scholarship-pro":{
        "name":"Scholarship Pro",
        "theme_slug":"scholarship-pro",
        "version":"1.1.8",
        "theme_description":"A clean multipurpose WordPress Theme.",
        "xml_file":"https:\/\/gitlab.com\/mysterythemes\/themes-demo-pack\/-\/raw\/main\/scholarship\/scholarship-pro\/scholarship-pro.xml",
        "theme_settings":"https:\/\/gitlab.com\/mysterythemes\/themes-demo-pack\/-\/raw\/main\/scholarship\/scholarship-pro\/scholarship-pro-export.dat",
        "widgets_file":"https:\/\/gitlab.com\/mysterythemes\/themes-demo-pack\/-\/raw\/main\/scholarship\/scholarship-pro\/scholarship-pro-widgets.wie",
        "preview_screen":"https:\/\/gitlab.com\/mysterythemes\/themes-demo-pack\/-\/raw\/main\/scholarship\/scholarship-pro\/screenshot.png",
        "preview_url":"https:\/\/demo.mysterythemes.com\/scholarship-pro\/",
        "is_shop":false,
        "theme_type":[
            "premium",
            "business",
            "multipurpose"
        ],
        "show_on_front":"page",
        "home_title":"Home",
        "blog_title":"Blog",
        "customizer_data_update":{
            "nav_menu_locations":{
                "scholarship_primary_menu":"Primary Menu",
                "scholarship_footer_menu": "Footer Menu"
            }
        },
        "widgets_data_update":{
            "dropdown_categories":{
                "category":{
                    "scholarship_testimonials":{
                        "2":{
                            "section_cat_id":"Testimonial"
                        }
                    }
                }
            },
            "multi_checkbox":{
                "category":{
                    "scholarship_latest_blog":{
                        "2":{
                            "section_cat_ids":[
                                "Blog"
                            ]
                        }
                    }
                }
            }
        },
        "plugins_list":{
            "woocommerce":{
                "name":"WooCommerce",
                "slug":"woocommerce\/woocommerce.php",
                "required":true
            }
        }
    },
    "scholarship-pro-boxed":{
        "name":"Scholarship Pro Boxed",
        "theme_slug":"scholarship-pro-boxed",
        "version":"1.1.8",
        "theme_description":"A clean multipurpose WordPress Theme.",
        "xml_file":"https:\/\/gitlab.com\/mysterythemes\/themes-demo-pack\/-\/raw\/main\/scholarship\/scholarship-pro-boxed\/scholarship-pro-boxed.xml",
        "theme_settings":"https:\/\/gitlab.com\/mysterythemes\/themes-demo-pack\/-\/raw\/main\/scholarship\/scholarship-pro-boxed\/scholarship-pro-boxed-export.dat",
        "widgets_file":"https:\/\/gitlab.com\/mysterythemes\/themes-demo-pack\/-\/raw\/main\/scholarship\/scholarship-pro-boxed\/scholarship-pro-boxed-widgets.wie",
        "preview_screen":"https:\/\/gitlab.com\/mysterythemes\/themes-demo-pack\/-\/raw\/main\/scholarship\/scholarship-pro-boxed\/screenshot.png",
        "preview_url":"https:\/\/demo.mysterythemes.com\/scholarship-pro-boxed\/",
        "is_shop":false,
        "theme_type":[
            "premium",
            "business",
            "multipurpose"
        ],
        "show_on_front":"page",
        "home_title":"Home",
        "blog_title":"Blog",
        "customizer_data_update":{
            "nav_menu_locations":{
                "scholarship_primary_menu":"Primary Menu"
            }
        },
        "plugins_list":{}
    },
    "scholarship-pro-lms":{
        "name":"Scholarship Pro LMS",
        "theme_slug":"scholarship-pro-lms",
        "version":"1.1.8",
        "theme_description":"A clean multipurpose WordPress Theme.",
        "xml_file":"https:\/\/gitlab.com\/mysterythemes\/themes-demo-pack\/-\/raw\/main\/scholarship\/scholarship-pro-lms\/scholarship-pro-lms.xml",
        "theme_settings":"https:\/\/gitlab.com\/mysterythemes\/themes-demo-pack\/-\/raw\/main\/scholarship\/scholarship-pro-lms\/scholarship-pro-lms-export.dat",
        "widgets_file":"https:\/\/gitlab.com\/mysterythemes\/themes-demo-pack\/-\/raw\/main\/scholarship\/scholarship-pro-lms\/scholarship-pro-lms-widgets.wie",
        "preview_screen":"https:\/\/gitlab.com\/mysterythemes\/themes-demo-pack\/-\/raw\/main\/scholarship\/scholarship-pro-lms\/screenshot.jpg",
        "preview_url":"https:\/\/preview.mysterythemes.com\/scholarship-pro-lms\/",
        "is_shop":false,
        "theme_type":[
            "premium",
            "business",
            "multipurpose"
        ],
        "show_on_front":"page",
        "home_title":"Home",
        "blog_title":"",
        "customizer_data_update":{
            "nav_menu_locations":{
                "scholarship_primary_menu":"Primary Menu",
                "scholarship_footer_menu": "Footer Menu"
            }
        },
        "plugins_list":{
            "elementor":{
                "name":"Elementor",
                "slug":"elementor/elementor.php",
                "required":true
            },
            "tutor":{
                "name":"Tutor LMS – eLearning and online course solution",
                "slug":"tutor/tutor.php",
                "required":true
            },
            "tutor-lms-elementor-addons":{
                "name":"Tutor LMS Elementor Addons",
                "slug":"tutor-lms-elementor-addons/tutor-lms-elementor-addons.php",
                "required":true
            }
        }
    }
}