{
    "matina-news":{
        "name":"Matina News",
        "theme_slug":"matina-news",
        "version":"1.0.0",
        "theme_description":"Matina News is a creative WordPress theme that is best for starting personal and professional blog sites based on any niche.",
        "xml_file":"https://gitlab.com/mysterythemes/themes-demo-pack/-/raw/main/matina-news/matina-news/matina-news.xml",
        "theme_settings":"https://gitlab.com/mysterythemes/themes-demo-pack/-/raw/main/matina-news/matina-news/matina-news-export.dat",
        "widgets_file":"https://gitlab.com/mysterythemes/themes-demo-pack/-/raw/main/matina-news/matina-news/matina-news-widgets.wie",
        "preview_screen":"https://gitlab.com/mysterythemes/themes-demo-pack/-/raw/main/matina-news/matina-news/screenshot.png",
        "preview_url":"https://demo.mysterythemes.com/matina-news/",
        "is_shop":false,
        "theme_type":[
            "free",
            "blog",
            "multipurpose"
        ],
        "show_on_front":"page",
        "home_title":"Elementor",
        "blog_title":"",
        "customizer_data_update":{
            "nav_menu_locations":{
                "matina_news_top_menu":"User Link",
                "matina_news_primary_menu":"Main Menu"
            }
        },
        "plugins_list":{
            "wp-magazine-modules-lite":{ 
                "name":"WP Magazine Modules Lite",
                "slug":"wp-magazine-modules-lite/wp-magazine-modules-lite.php",
                "required":true
            },
            "elementor":{
                "name":"Elementor",
                "slug":"elementor/elementor.php",
                "required":true
            }
        },
        "is_child_exists": true,
        "child_themes": {
            "matina-newspaper":{
                "name":"Matina Newspaper",
                "theme_slug":"matina-newspaper",
                "parent_slug": "matina-news",
                "theme_description":"Matina Newspaper is an innovative WordPress theme designed for individuals looking to launch personal or professional blog sites across various niches.",
                "xml_file":"https:\/\/gitlab.com\/mysterythemes\/themes-demo-pack\/-\/raw\/main\/matina-news\/matina-newspaper\/matina-newspaper.xml",
                "theme_settings":"https:\/\/gitlab.com\/mysterythemes\/themes-demo-pack\/-\/raw\/main\/matina-news\/matina-newspaper\/matina-newspaper-export.dat",
                "widgets_file":"https:\/\/gitlab.com\/mysterythemes\/themes-demo-pack\/-\/raw\/main\/matina-news\/matina-newspaper\/matina-newspaper-widgets.wie",
                "preview_screen":"https:\/\/gitlab.com\/mysterythemes\/themes-demo-pack\/-\/raw\/main\/matina-news\/matina-newspaper\/screenshot.jpg",
                "preview_url":"https:\/\/demo.mysterythemes.com\/child-theme\/matina-newspaper\/",
                "is_shop":false,
                    "theme_type":[
                        "child-theme",
                        "free",
                        "blog",
                        "multipurpose"
                    ],
                "show_on_front":"page",
                "home_title":"Home",
                "blog_title":"",
                "customizer_data_update": {
                    "nav_menu_locations": {
                        "matina_news_top_menu": "Top Menu",
                        "matina_news_primary_menu":"main menu"
                    }
                },
                "plugins_list":{
                    "elementor":{
                        "name":"Elementor",
                        "slug":"elementor/elementor.php",
                        "required":true
                    },
                    "hash-elements":{ 
                        "name":"Hash Elements",
                        "slug":"hash-elements/hash-elements.php",
                        "required":true
                    }

                }
            }
        }
    },
    "matina-pro":{
        "name":"Matina Pro",
        "theme_slug":"matina-pro",
        "version":"1.0.0",
        "theme_description":"A clear and powerful premium blog WordPress Theme.",
        "xml_file":"https://gitlab.com/mysterythemes/themes-demo-pack/-/raw/main/matina/matina-pro/matina-pro.xml",
        "theme_settings":"https://gitlab.com/mysterythemes/themes-demo-pack/-/raw/main/matina/matina-pro/matina-pro-export.dat",
        "widgets_file":"https://gitlab.com/mysterythemes/themes-demo-pack/-/raw/main/matina/matina-pro/matina-pro-widgets.wie",
        "preview_screen":"https://gitlab.com/mysterythemes/themes-demo-pack/-/raw/main/matina/matina-pro/screenshot.png",
        "preview_url":"https://demo.mysterythemes.com/matina-pro/",
        "is_shop":true,
        "theme_type":[
            "premium",
            "blog",
            "multipurpose"
        ],
        "show_on_front":"",
        "home_title":"",
        "blog_title":"",
        "widgets_data_update": {
            "navigation_menus": {
                "nav_menu": {
                    "5": {
                        "nav_menu": "Secondary Menu"
                    }
                }
            }
        },
        "customizer_data_update":{
            "nav_menu_locations":{
                "matina_top_menu":"Secondary Menu",
                "matina_primary_menu":"Main Menu",
                "matina_footer_menu":"Main Menu"
            },
            "categories":{
                "category":{
                    "matina_banner_category": "Featured"
                }
            }
        },
        "plugins_list":{
            "woocommerce":{
                "name":"WooCommerce",
                "slug":"woocommerce/woocommerce.php",
                "required":true
            },
            "blog-post-layouts":{ 
                "name":"Blog Post Layouts",
                "slug":"blog-post-layouts/blog-post-layouts.php",
                "install" : "locally",
                "required":true
            }
        }
    },
    "matina-pro-travel":{
        "name":"Matina Pro Travel",
        "theme_slug":"matina-pro-travel",
        "version":"1.0.0",
        "theme_description":"A clear and powerful premium blog WordPress Theme.",
        "xml_file":"https://gitlab.com/mysterythemes/themes-demo-pack/-/raw/main/matina/matina-pro-travel/matina-pro.xml",
        "theme_settings":"https://gitlab.com/mysterythemes/themes-demo-pack/-/raw/main/matina/matina-pro-travel/matina-pro-export.dat",
        "widgets_file":"https://gitlab.com/mysterythemes/themes-demo-pack/-/raw/main/matina/matina-pro-travel/matina-pro-widgets.wie",
        "preview_screen":"https://gitlab.com/mysterythemes/themes-demo-pack/-/raw/main/matina/matina-pro-travel/screenshot.png",
        "preview_url":"https://demo.mysterythemes.com/matina-pro-travel/",
        "is_shop":false,
        "theme_type":[
            "premium",
            "blog",
            "multipurpose"
        ],
        "show_on_front":"",
        "home_title":"",
        "blog_title":"",
        "customizer_data_update":{
            "nav_menu_locations":{
                "matina_primary_menu":"Main Menu",
                "matina_footer_menu":"Main Menu"
            },
            "categories":{
                "category":{
                    "matina_banner_category": "Travel"
                }
            },
            "multi_categories":{
                "category": { 
                        "matina_featured_categories":[
                            "Places"
                        ]
                }
            }
        },
        "plugins_list":{
            "blog-post-layouts":{ 
                "name":"Blog Post Layouts",
                "slug":"blog-post-layouts/blog-post-layouts.php",
                "install" : "locally",
                "required":true
            }
        }
    },
    "matina-pro-food":{
        "name":"Matina Pro Food",
        "theme_slug":"matina-pro-food",
        "version":"1.0.0",
        "theme_description":"A clear and powerful premium blog WordPress Theme.",
        "xml_file":"https://gitlab.com/mysterythemes/themes-demo-pack/-/raw/main/matina/matina-pro-food/matina-pro.xml",
        "theme_settings":"https://gitlab.com/mysterythemes/themes-demo-pack/-/raw/main/matina/matina-pro-food/matina-pro-export.dat",
        "widgets_file":"https://gitlab.com/mysterythemes/themes-demo-pack/-/raw/main/matina/matina-pro-food/matina-pro-widgets.wie",
        "preview_screen":"https://gitlab.com/mysterythemes/themes-demo-pack/-/raw/main/matina/matina-pro-food/screenshot.png",
        "preview_url":"https://demo.mysterythemes.com/matina-pro-food/",
        "is_shop":false,
        "theme_type":[
            "premium",
            "blog",
            "multipurpose"
        ],
        "show_on_front":"",
        "home_title":"",
        "blog_title":"",
        "customizer_data_update":{
            "nav_menu_locations":{
                "matina_primary_menu":"Main Menu",
                "matina_footer_menu":"Main Menu"
            },
            "categories":{
                "category":{
                    "matina_banner_category": "Vegetarians"
                }
            }
        },
        "plugins_list":{
            "blog-post-layouts":{ 
                "name":"Blog Post Layouts",
                "slug":"blog-post-layouts/blog-post-layouts.php",
                "install" : "locally",
                "required":true
            }
        }
    },
    "matina-pro-lifestyle":{
        "name":"Matina Pro Lifestyle",
        "theme_slug":"matina-pro-lifestyle",
        "version":"1.0.0",
        "theme_description":"A clear and powerful premium blog WordPress Theme.",
        "xml_file":"https://gitlab.com/mysterythemes/themes-demo-pack/-/raw/main/matina/matina-pro-lifestyle/matina-pro.xml",
        "theme_settings":"https://gitlab.com/mysterythemes/themes-demo-pack/-/raw/main/matina/matina-pro-lifestyle/matina-pro-export.dat",
        "widgets_file":"https://gitlab.com/mysterythemes/themes-demo-pack/-/raw/main/matina/matina-pro-lifestyle/matina-pro-widgets.wie",
        "preview_screen":"https://gitlab.com/mysterythemes/themes-demo-pack/-/raw/main/matina/matina-pro-lifestyle/screenshot.png",
        "preview_url":"https://demo.mysterythemes.com/matina-pro-lifestyle/",
        "is_shop":false,
        "theme_type":[
            "premium",
            "blog",
            "multipurpose"
        ],
        "show_on_front":"",
        "home_title":"",
        "blog_title":"",
        "customizer_data_update":{
            "nav_menu_locations":{
                "matina_primary_menu":"Main Menu",
                "matina_footer_menu":"Main Menu"
            },
            "categories":{
                "category":{
                    "matina_banner_category": "Lifestyle"
                }
            },
            "multi_categories":{
                "category": { 
                        "matina_featured_categories":[
                            "Minimal"
                        ]
                }
            }
        },
        "plugins_list":{
            "blog-post-layouts":{ 
                "name":"Blog Post Layouts",
                "slug":"blog-post-layouts/blog-post-layouts.php",
                "install" : "locally",
                "required":true
            }
        }
    },
    "matina-pro-fashion":{
        "name":"Matina Pro Fashion",
        "theme_slug":"matina-pro-fashion",
        "version":"1.0.0",
        "theme_description":"A clear and powerful premium blog WordPress Theme.",
        "xml_file":"https://gitlab.com/mysterythemes/themes-demo-pack/-/raw/main/matina/matina-pro-fashion/matina-pro.xml",
        "theme_settings":"https://gitlab.com/mysterythemes/themes-demo-pack/-/raw/main/matina/matina-pro-fashion/matina-pro-export.dat",
        "widgets_file":"https://gitlab.com/mysterythemes/themes-demo-pack/-/raw/main/matina/matina-pro-fashion/matina-pro-widgets.wie",
        "preview_screen":"https://gitlab.com/mysterythemes/themes-demo-pack/-/raw/main/matina/matina-pro-fashion/screenshot.png",
        "preview_url":"https://demo.mysterythemes.com/matina-pro-fashion/",
        "is_shop":false,
        "theme_type":[
            "premium",
            "blog",
            "multipurpose"
        ],
        "show_on_front":"",
        "home_title":"",
        "blog_title":"",
        "customizer_data_update":{
            "nav_menu_locations":{
                "matina_primary_menu":"Main One",
                "matina_footer_menu":"Main Two"
            },
            "categories":{
                "category":{
                    "matina_banner_category": "Modern"
                }
            }
        },
        "plugins_list":{
            "elementor":{
                "name":"Elementor",
                "slug":"elementor/elementor.php",
                "required":true
            },
            "blog-post-layouts":{ 
                "name":"Blog Post Layouts",
                "slug":"blog-post-layouts/blog-post-layouts.php",
                "install" : "locally",
                "required":true
            }
        }
    },
    "matina-pro-fitness":{
        "name":"Matina Pro Fitness",
        "theme_slug":"matina-pro-fitness",
        "version":"1.0.0",
        "theme_description":"A clear and powerful premium blog WordPress Theme.",
        "xml_file":"https://gitlab.com/mysterythemes/themes-demo-pack/-/raw/main/matina/matina-pro-fitness/matina-pro.xml",
        "theme_settings":"https://gitlab.com/mysterythemes/themes-demo-pack/-/raw/main/matina/matina-pro-fitness/matina-pro-export.dat",
        "widgets_file":"https://gitlab.com/mysterythemes/themes-demo-pack/-/raw/main/matina/matina-pro-fitness/matina-pro-widgets.wie",
        "preview_screen":"https://gitlab.com/mysterythemes/themes-demo-pack/-/raw/main/matina/matina-pro-fitness/screenshot.png",
        "preview_url":"https://demo.mysterythemes.com/matina-pro-fitness/",
        "is_shop":false,
        "theme_type":[
            "premium",
            "blog",
            "multipurpose"
        ],
        "show_on_front":"",
        "home_title":"",
        "blog_title":"",
        "customizer_data_update":{
            "nav_menu_locations":{
                "matina_primary_menu":"Main Menu"
            },
            "categories":{
                "category":{
                    "matina_banner_category": "Workout"
                }
            }
        },
        "plugins_list":{
            "blog-post-layouts":{ 
                "name":"Blog Post Layouts",
                "slug":"blog-post-layouts/blog-post-layouts.php",
                "install" : "locally",
                "required":true
            }
        }
    },
    "matina-pro-mag":{
        "name":"Matina Pro Mag",
        "theme_slug":"matina-pro-mag",
        "version":"1.0.0",
        "theme_description":"A clear and powerful premium magazine WordPress Theme.",
        "xml_file":"https://gitlab.com/mysterythemes/themes-demo-pack/-/raw/main/matina/matina-pro-mag/matina-pro-mag.xml",
        "theme_settings":"https://gitlab.com/mysterythemes/themes-demo-pack/-/raw/main/matina/matina-pro-mag/matina-pro-mag-export.dat",
        "widgets_file":"https://gitlab.com/mysterythemes/themes-demo-pack/-/raw/main/matina/matina-pro-mag/matina-pro-mag-widgets.wie",
        "preview_screen":"https://gitlab.com/mysterythemes/themes-demo-pack/-/raw/main/matina/matina-pro-mag/screenshot.png",
        "preview_url":"https://demo.mysterythemes.com/matina-pro-mag/",
        "is_shop":false,
        "theme_type":[
            "premium",
            "magazine",
            "multipurpose"
        ],
        "show_on_front":"page",
        "home_title":"Home",
        "blog_title":"",
        "customizer_data_update":{
            "nav_menu_locations":{
                "matina_primary_menu":"primary menu",
                "matina_footer_menu" : "Categories"
            }
        },
        "plugins_list":{
            "wp-magazine-modules":{ 
                "name":"WP Magazine Modules",
                "slug":"wp-magazine-modules/wp-magazine-modules.php",
                "install" : "locally",
                "required":true
            },
            "elementor":{
                "name":"Elementor",
                "slug":"elementor/elementor.php",
                "required":true
            }
        }
    },
    "matina-pro-news":{
        "name":"Matina Pro News",
        "theme_slug":"matina-pro-news",
        "version":"1.0.0",
        "theme_description":"A clear and powerful premium blog WordPress Theme.",
        "xml_file":"https://gitlab.com/mysterythemes/themes-demo-pack/-/raw/main/matina/matina-pro-news/matina-pro-news.xml",
        "theme_settings":"https://gitlab.com/mysterythemes/themes-demo-pack/-/raw/main/matina/matina-pro-news/matina-pro-news-export.dat",
        "widgets_file":"https://gitlab.com/mysterythemes/themes-demo-pack/-/raw/main/matina/matina-pro-news/matina-pro-news-widgets.wie",
        "preview_screen":"https://gitlab.com/mysterythemes/themes-demo-pack/-/raw/main/matina/matina-pro-news/screenshot.png",
        "preview_url":"https://demo.mysterythemes.com/matina-pro-news/",
        "is_shop":false,
        "theme_type":[
            "premium",
            "blog",
            "multipurpose"
        ],
        "show_on_front":"page",
        "home_title":"Elementor",
        "blog_title":"",
        "customizer_data_update":{
            "nav_menu_locations":{
                "matina_top_menu"    : "Top Menu",
                "matina_primary_menu": "Primary Menu",
                "matina_footer_menu" : "Menu Two"
            }
        },
        "plugins_list":{
            "wp-magazine-modules":{ 
                "name":"WP Magazine Modules",
                "slug":"wp-magazine-modules/wp-magazine-modules.php",
                "install" : "locally",
                "required":true
            },
            "elementor":{
                "name":"Elementor",
                "slug":"elementor/elementor.php",
                "required":true
            }
        }
    },
    "matina-pro-newspaper":{
        "name":"Matina Pro Newspaper",
        "theme_slug":"matina-pro-newspaper",
        "version":"1.0.0",
        "theme_description":"A clear and powerful premium blog WordPress Theme.",
        "xml_file":"https://gitlab.com/mysterythemes/themes-demo-pack/-/raw/main/matina/matina-pro-newspaper/matina-pro-newspaper.xml",
        "theme_settings":"https://gitlab.com/mysterythemes/themes-demo-pack/-/raw/main/matina/matina-pro-newspaper/matina-pro-newspaper-export.dat",
        "widgets_file":"https://gitlab.com/mysterythemes/themes-demo-pack/-/raw/main/matina/matina-pro-newspaper/matina-pro-newspaper-widgets.wie",
        "preview_screen":"https://gitlab.com/mysterythemes/themes-demo-pack/-/raw/main/matina/matina-pro-newspaper/screenshot.png",
        "preview_url":"https://demo.mysterythemes.com/matina-pro-newspaper/",
        "is_shop":false,
        "theme_type":[
            "premium",
            "blog",
            "multipurpose"
        ],
        "show_on_front":"page",
        "home_title":"Home",
        "blog_title":"",
        "customizer_data_update":{
            "nav_menu_locations":{
                "matina_top_menu"    : "main menu",
                "matina_primary_menu": "main menu"
            }
        },
        "plugins_list":{
            "elementor":{
                "name":"Elementor",
                "slug":"elementor/elementor.php",
                "required":true
            },
            "hash-elements":{ 
                "name":"Hash Elements",
                "slug":"hash-elements/hash-elements.php",
                "required":true
            }
        }
    }
}