{
    "ogma-blog":{
        "name":"Ogma Blog",
        "theme_slug":"ogma-blog",
        "theme_description":"Free Blogging WordPress with a one-click demo import feature which is a highly versatile and user-friendly theme explicitly designed for blog websites, and content-heavy blogs.",
        "xml_file":"https://gitlab.com/mysterythemes/themes-demo-pack/-/raw/main/ogma-blog/ogma-blog/ogma-blog.xml",
        "theme_settings":"https://gitlab.com/mysterythemes/themes-demo-pack/-/raw/main/ogma-blog/ogma-blog/ogma-blog-export.dat",
        "widgets_file":"https://gitlab.com/mysterythemes/themes-demo-pack/-/raw/main/ogma-blog/ogma-blog/ogma-blog-widgets.wie",
        "preview_screen":"https://gitlab.com/mysterythemes/themes-demo-pack/-/raw/main/ogma-blog/ogma-blog/screenshot.png",
        "preview_url":"https://ogma.mysterythemes.com/demos/ogma-blog/",
        "is_shop":false,
        "theme_type":[
            "free",
            "blog",
            "magazine"
        ],
        "show_on_front":"",
        "home_title":"",
        "blog_title":"",
        "customizer_data_update":{
            "nav_menu_locations":{
                "top_header_menu":"Footer menu",
                "primary_menu":"Main Menu",
                "footer_menu":"Footer menu"
            }
        },
        "plugins_list":{},
        "is_child_exists":true,
        "child_themes":{
            "ogma-blogger":{
                "name":"Ogma Blogger",
                "theme_slug":"ogma-blogger",
                "parent_slug":"ogma-blog",
                "theme_description":"Ogma Blogger is a child theme of ogma-blog WordPress theme specially designed for personal blogging",
                "xml_file":"https:\/\/gitlab.com\/mysterythemes\/themes-demo-pack\/-\/raw\/main\/ogma-blog\/ogma-blogger\/ogma-blogger.xml",
                "theme_settings":"https:\/\/gitlab.com\/mysterythemes\/themes-demo-pack\/-\/raw\/main\/ogma-blog\/ogma-blogger\/ogma-blogger-export.dat",
                "widgets_file":"https:\/\/gitlab.com\/mysterythemes\/themes-demo-pack\/-\/raw\/main\/ogma-blog\/ogma-blogger\/ogma-blogger-widgets.wie",
                "preview_screen":"https:\/\/gitlab.com\/mysterythemes\/themes-demo-pack\/-\/raw\/main\/ogma-blog\/ogma-blogger\/screenshot.png",
                "preview_url":"https:\/\/demo.mysterythemes.com\/child-theme\/ogma-blogger\/",
                "is_shop":false,
                    "theme_type":[
                        "child-theme",
                        "free"
                    ],
                "show_on_front":"",
                "home_title":"",
                "blog_title":"",
                "customizer_data_update": {
                    "nav_menu_locations": {
                        "top_header_menu":"Top Menu",
                        "primary_menu":"Main Menu"
                    }
                },
                "plugins_list":{}
            }
        }
    },
    "ogma-blog-two":{
        "name":"Ogma Blog Two",
        "theme_slug":"ogma-blog-two",
        "theme_description":"Free Blogging WordPress with a one-click demo import feature which is a highly versatile and user-friendly theme explicitly designed for blog websites, and content-heavy blogs.",
        "xml_file":"https://gitlab.com/mysterythemes/themes-demo-pack/-/raw/main/ogma-blog/ogma-blog-two/ogma-blog-two.xml",
        "theme_settings":"https://gitlab.com/mysterythemes/themes-demo-pack/-/raw/main/ogma-blog/ogma-blog-two/ogma-blog-two-export.dat",
        "widgets_file":"https://gitlab.com/mysterythemes/themes-demo-pack/-/raw/main/ogma-blog/ogma-blog-two/ogma-blog-two-widgets.wie",
        "preview_screen":"https://gitlab.com/mysterythemes/themes-demo-pack/-/raw/main/ogma-blog/ogma-blog-two/screenshot.png",
        "preview_url":"https://ogma.mysterythemes.com/demos/ogma-blog-two/",
        "is_shop":false,
        "theme_type":[
            "free",
            "blog",
            "magazine"
        ],
        "show_on_front":"page",
        "home_title":"Home",
        "blog_title":"",
        "customizer_data_update":{
            "nav_menu_locations":{
                "top_header_menu":"Top menu",
                "primary_menu":"Main Menu",
                "footer_menu":"Top menu"
            }
        },
        "plugins_list":{
            "wp-blog-post-layouts":{
                "name":"WP Blog Post Layouts",
                "slug":"wp-blog-post-layouts/wp-blog-post-layouts.php",
                "required":true
            },
            "elementor":{
                "name":"Elementor",
                "slug":"elementor/elementor.php",
                "required":true
            }
        }
    },
    "ogma-pro":{
        "name":"Ogma Pro",
        "theme_slug":"ogma-pro",
        "theme_description":"Premium Magazine WordPress theme designed for digital news, magazines and news portal websites.",
        "xml_file":"https://gitlab.com/mysterythemes/themes-demo-pack/-/raw/main/ogma/ogma-pro/ogma-pro.xml",
        "theme_settings":"https://gitlab.com/mysterythemes/themes-demo-pack/-/raw/main/ogma/ogma-pro/ogma-pro-export.dat",
        "widgets_file":"https://gitlab.com/mysterythemes/themes-demo-pack/-/raw/main/ogma/ogma-pro/ogma-pro-widgets.wie",
        "preview_screen":"https://gitlab.com/mysterythemes/themes-demo-pack/-/raw/main/ogma/ogma-pro/screenshot.png",
        "preview_url":"https://ogma.mysterythemes.com/demos/ogma-pro/",
        "is_shop":false,
        "theme_type":[
            "premium",
            "blog",
            "magazine"
        ],
        "show_on_front":"",
        "home_title":"",
        "blog_title":"",
        "customizer_data_update":{
            "nav_menu_locations":{
                "top_header_menu":"Top Menu",
                "primary_menu":"main menu",
                "footer_menu":"Top Menu"
            }
        },
        "plugins_list":{}
    },
    "ogma-pro-blog":{
        "name":"Ogma Pro Blog",
        "theme_slug":"ogma-pro-blog",
        "theme_description":"Premium Magazine WordPress theme designed for digital news, magazines and news portal websites.",
        "xml_file":"https://gitlab.com/mysterythemes/themes-demo-pack/-/raw/main/ogma/ogma-pro-blog/ogma-pro-blog.xml",
        "theme_settings":"https://gitlab.com/mysterythemes/themes-demo-pack/-/raw/main/ogma/ogma-pro-blog/ogma-pro-blog-export.dat",
        "widgets_file":"https://gitlab.com/mysterythemes/themes-demo-pack/-/raw/main/ogma/ogma-pro-blog/ogma-pro-blog-widgets.wie",
        "preview_screen":"https://gitlab.com/mysterythemes/themes-demo-pack/-/raw/main/ogma/ogma-pro-blog/screenshot.png",
        "preview_url":"https://ogma.mysterythemes.com/demos/ogma-pro-blog/",
        "is_shop":false,
        "theme_type":[
            "premium",
            "blog",
            "magazine"
        ],
        "show_on_front":"",
        "home_title":"",
        "blog_title":"",
        "customizer_data_update":{
            "nav_menu_locations":{
                "top_header_menu":"Top Menu",
                "primary_menu":"Primary Menu",
                "footer_menu":"Top Menu"
            }
        },
        "plugins_list":{}
    },
    "ogma-pro-food":{
        "name":"Ogma Pro Food",
        "theme_slug":"ogma-pro-food",
        "theme_description":"Premium Magazine WordPress theme designed for digital news, magazines and news portal websites.",
        "xml_file":"https://gitlab.com/mysterythemes/themes-demo-pack/-/raw/main/ogma/ogma-pro-food/ogma-pro-food.xml",
        "theme_settings":"https://gitlab.com/mysterythemes/themes-demo-pack/-/raw/main/ogma/ogma-pro-food/ogma-pro-food-export.dat",
        "widgets_file":"https://gitlab.com/mysterythemes/themes-demo-pack/-/raw/main/ogma/ogma-pro-food/ogma-pro-food-widgets.wie",
        "preview_screen":"https://gitlab.com/mysterythemes/themes-demo-pack/-/raw/main/ogma/ogma-pro-food/screenshot.png",
        "preview_url":"https://ogma.mysterythemes.com/demos/ogma-pro-food/",
        "is_shop":false,
        "theme_type":[
            "premium",
            "blog",
            "magazine"
        ],
        "show_on_front":"",
        "home_title":"",
        "blog_title":"",
        "customizer_data_update":{
            "nav_menu_locations":{
                "top_header_menu":"Top Menu",
                "primary_menu":"main menu",
                "footer_menu":"Top Menu"
            }
        },
        "plugins_list":{}
    },
    "ogma-pro-gaming":{
        "name":"Ogma Pro Gaming",
        "theme_slug":"ogma-pro-gaming",
        "theme_description":"Premium Magazine WordPress theme designed for digital news, magazines and news portal websites.",
        "xml_file":"https://gitlab.com/mysterythemes/themes-demo-pack/-/raw/main/ogma/ogma-pro-gaming/ogma-pro-gaming.xml",
        "theme_settings":"https://gitlab.com/mysterythemes/themes-demo-pack/-/raw/main/ogma/ogma-pro-gaming/ogma-pro-gaming-export.dat",
        "widgets_file":"https://gitlab.com/mysterythemes/themes-demo-pack/-/raw/main/ogma/ogma-pro-gaming/ogma-pro-gaming-widgets.wie",
        "preview_screen":"https://gitlab.com/mysterythemes/themes-demo-pack/-/raw/main/ogma/ogma-pro-gaming/screenshot.png",
        "preview_url":"https://ogma.mysterythemes.com/demos/ogma-pro-gaming/",
        "is_shop":false,
        "theme_type":[
            "premium",
            "blog",
            "magazine"
        ],
        "show_on_front":"",
        "home_title":"",
        "blog_title":"",
        "customizer_data_update":{
            "nav_menu_locations":{
                "top_header_menu":"",
                "primary_menu":"main menu",
                "footer_menu":""
            }
        },
        "plugins_list":{}
    },
    "ogma-pro-fashion":{
        "name":"Ogma Pro Fashion",
        "theme_slug":"ogma-pro-fashion",
        "theme_description":"Premium Magazine WordPress theme designed for digital news, magazines and news portal websites.",
        "xml_file":"https://gitlab.com/mysterythemes/themes-demo-pack/-/raw/main/ogma/ogma-pro-fashion/ogma-pro-fashion.xml",
        "theme_settings":"https://gitlab.com/mysterythemes/themes-demo-pack/-/raw/main/ogma/ogma-pro-fashion/ogma-pro-fashion-export.dat",
        "widgets_file":"https://gitlab.com/mysterythemes/themes-demo-pack/-/raw/main/ogma/ogma-pro-fashion/ogma-pro-fashion-widgets.wie",
        "preview_screen":"https://gitlab.com/mysterythemes/themes-demo-pack/-/raw/main/ogma/ogma-pro-fashion/screenshot.png",
        "preview_url":"https://ogma.mysterythemes.com/demos/ogma-pro-fashion/",
        "is_shop":false,
        "theme_type":[
            "premium",
            "blog",
            "magazine"
        ],
        "show_on_front":"",
        "home_title":"",
        "blog_title":"",
        "customizer_data_update":{
            "nav_menu_locations":{
                "top_header_menu":"",
                "primary_menu":"primary menu",
                "footer_menu":"primary menu"
            }
        },
        "plugins_list":{}
    },
    "ogma-pro-newspaper":{
        "name":"Ogma Pro Newspaper",
        "theme_slug":"ogma-pro-newspaper",
        "theme_description":"Premium Magazine WordPress theme designed for digital news, magazines and news portal websites.",
        "xml_file":"https://gitlab.com/mysterythemes/themes-demo-pack/-/raw/main/ogma/ogma-pro-newspaper/ogma-pro-newspaper.xml",
        "theme_settings":"https://gitlab.com/mysterythemes/themes-demo-pack/-/raw/main/ogma/ogma-pro-newspaper/ogma-pro-newspaper-export.dat",
        "widgets_file":"https://gitlab.com/mysterythemes/themes-demo-pack/-/raw/main/ogma/ogma-pro-newspaper/ogma-pro-newspaper-widgets.wie",
        "preview_screen":"https://gitlab.com/mysterythemes/themes-demo-pack/-/raw/main/ogma/ogma-pro-newspaper/screenshot.png",
        "preview_url":"https://ogma.mysterythemes.com/demos/ogma-pro-newspaper/",
        "is_shop":false,
        "theme_type":[
            "premium",
            "blog",
            "magazine"
        ],
        "show_on_front":"",
        "home_title":"",
        "blog_title":"",
        "customizer_data_update":{
            "nav_menu_locations":{
                "top_header_menu":"Top-menu",
                "primary_menu":"Header Menu",
                "footer_menu":"Footer Menu"
            }
        },
        "plugins_list":{}
    }
}