{
    "news-portal":{
        "name":"News Portal",
        "theme_slug":"news-portal",
        "version": "1.1.19",
        "theme_description":"Ultimate responsive magazine WordPress Theme.",
        "xml_file":"https:\/\/gitlab.com\/mysterythemes\/themes-demo-pack\/-\/raw\/main\/news-portal\/news-portal\/news-portal.xml",
        "theme_settings":"https:\/\/gitlab.com\/mysterythemes\/themes-demo-pack\/-\/raw\/main\/news-portal\/news-portal\/news-portal-export.dat",
        "widgets_file":"https:\/\/gitlab.com\/mysterythemes\/themes-demo-pack\/-\/raw\/main\/news-portal\/news-portal\/news-portal-widgets.wie",
        "preview_screen":"https:\/\/gitlab.com\/mysterythemes\/themes-demo-pack\/-\/raw\/main\/news-portal\/news-portal\/screenshot.png",
        "preview_url":"https:\/\/demo.mysterythemes.com\/news-portal\/",
        "is_shop":false,
        "theme_type":[
            "free",
            "blog",
            "magazine"
        ],
        "execution_time": 480,
        "show_on_front":"page",
        "home_title":"Home",
        "blog_title":"",
        "widgets_data_update":{
            "navigation_menus":{
                "nav_menu":{
                    "3":{
                        "nav_menu":"Categories"
                    }
                }
            },
            "dropdown_categories":{
                "category":{
                    "news_portal_block_posts":{ 
                        "2":{
                            "block_cat_id":"Sports"
                        },
                        "3":{
                            "block_cat_id":"Travel"
                        },
                        "4":{
                            "block_cat_id":"Food"
                        },
                        "5":{
                            "block_cat_id":"Travel"
                        }
                    }
                }
            },
            "multi_checkbox":{
                "category":{
                    "news_portal_featured_slider":{
                        "2":{
                            "slider_cat_ids":[
                                "Tech"
                            ],
                            "featured_cat_ids":[
                                "Fashion",
                                "Lifestyle",
                                "Music",
                                "Travel"
                            ]
                        }
                    },
                    "news_portal_featured_posts":{
                        "3":{
                            "block_cat_ids":[
                                "Fashion",
                                "Tech"
                            ]
                        }
                    },
                    "news_portal_carousel":{
                        "2":{
                            "block_cat_ids":[
                                "Food",
                                "Music"
                            ]
                        }
                    }
                }
            }
        },
        "customizer_data_update": {
            "nav_menu_locations": {
                "news_portal_top_menu":"top menu",
                "news_portal_primary_menu":"primary menu"
            }
        },
        "plugins_list":{
            "wpforms-lite":{
                "name":"Contact Form by WPForms",
                "slug":"wpforms-lite\/wpforms.php",
                "required":true
            },
            "wp-blog-post-layouts":{
                "name":"WP Blog Post Layouts",
                "slug":"wp-blog-post-layouts\/wp-blog-post-layouts.php",
                "required":true
            },
            "elementor":{
                "name":"Elementor",
                "slug":"elementor\/elementor.php",
                "required":true
            },
            "wp-magazine-modules-lite":{
                "name":"WP Magazine Modules Lite",
                "slug":"wp-magazine-modules-lite\/wp-magazine-modules-lite.php",
                "required":true
            }
        },
        "is_child_exists": true,
        "child_themes": {
            "blogger-portal":{
                "name":"Blogger Portal",
                "theme_slug":"blogger-portal",
                "parent_slug": "news-portal",
                "theme_description":"A pure blogger free WordPress Theme.",
                "xml_file":"https:\/\/gitlab.com\/mysterythemes\/themes-demo-pack\/-\/raw\/main\/news-portal\/blogger-portal\/blogger-portal.xml",
                "theme_settings":"https:\/\/gitlab.com\/mysterythemes\/themes-demo-pack\/-\/raw\/main\/news-portal\/blogger-portal\/blogger-portal-export.dat",
                "widgets_file":"https:\/\/gitlab.com\/mysterythemes\/themes-demo-pack\/-\/raw\/main\/news-portal\/blogger-portal\/blogger-portal-widgets.wie",
                "preview_screen":"https:\/\/gitlab.com\/mysterythemes\/themes-demo-pack\/-\/raw\/main\/news-portal\/blogger-portal\/screenshot.png",
                "preview_url":"https:\/\/demo.mysterythemes.com\/child-theme\/blogger-portal\/",
                "is_shop":false,
                    "theme_type":[
                        "child-theme",
                        "free",
                        "blog",
                        "magazine"
                    ],
                "show_on_front":"",
                "home_title":"",
                "blog_title":"",
                "customizer_data_update": {
                    "nav_menu_locations": {
                        "news_portal_top_menu": "Top Menu",
                        "news_portal_primary_menu":"Main Menu"
                    }
                },
                "plugins_list":{}
            },
            "skynews":{
                "name":"Skynews",
                "theme_slug":"skynews",
                "parent_slug": "news-portal",
                "theme_description":"A perfect magazine free WordPress Theme.",
                "xml_file":"https:\/\/gitlab.com\/mysterythemes\/themes-demo-pack\/-\/raw\/main\/news-portal\/skynews\/skynews.xml",
                "theme_settings":"https:\/\/gitlab.com\/mysterythemes\/themes-demo-pack\/-\/raw\/main\/news-portal\/skynews\/skynews-export.dat",
                "widgets_file":"https:\/\/gitlab.com\/mysterythemes\/themes-demo-pack\/-\/raw\/main\/news-portal\/skynews\/skynews-widgets.wie",
                "preview_screen":"https:\/\/gitlab.com\/mysterythemes\/themes-demo-pack\/-\/raw\/main\/news-portal\/skynews\/screenshot.png",
                "preview_url":"https:\/\/demo.mysterythemes.com\/child-theme\/skynews\/",
                "is_shop":false,
                    "theme_type":[
                        "child-theme",
                        "free",
                        "blog",
                        "magazine"
                    ],
                "show_on_front":"page",
                "home_title":"Home",
                "blog_title":"",
                "customizer_data_update": {
                    "nav_menu_locations": {
                        "news_portal_primary_menu":"main menu"
                    }
                },
                "plugins_list":{
                    "elementor":{
                        "name":"Elementor",
                        "slug":"elementor\/elementor.php",
                        "required":true
                    },
                    "wp-magazine-modules-lite":{
                        "name":"WP Magazine Modules Lite",
                        "slug":"wp-magazine-modules-lite\/wp-magazine-modules-lite.php",
                        "required":true
                    }
                }
            }
        }
    },
    "news-portal-elementor":{
        "name":"News Portal Elementor",
        "theme_slug":"news-portal-elementor",
        "version": "1.1.19",
        "theme_description":"Ultimate responsive magazine WordPress Theme.",
        "xml_file":"https:\/\/gitlab.com\/mysterythemes\/themes-demo-pack\/-\/raw\/main\/news-portal\/news-portal-elementor\/news-portal-elementor.xml",
        "theme_settings":"https:\/\/gitlab.com\/mysterythemes\/themes-demo-pack\/-\/raw\/main\/news-portal\/news-portal-elementor\/news-portal-elementor-export.dat",
        "widgets_file":"https:\/\/gitlab.com\/mysterythemes\/themes-demo-pack\/-\/raw\/main\/news-portal\/news-portal-elementor\/news-portal-elementor-widgets.wie",
        "preview_screen":"https:\/\/gitlab.com\/mysterythemes\/themes-demo-pack\/-\/raw\/main\/news-portal\/news-portal-elementor\/screenshot.png",
        "preview_url":"https:\/\/demo.mysterythemes.com\/news-portal-elementor\/",
        "is_shop":false,
        "theme_type":[
            "free",
            "blog",
            "magazine"
        ],
        "show_on_front":"page",
        "home_title":"Elementor Home",
        "blog_title":"",
        "customizer_data_update": {
            "nav_menu_locations": {
                "news_portal_top_menu":"Categoreis",
                "news_portal_primary_menu":"front menu",
                "news_portal_footer_menu":"Categoreis"
            }
        },
        "plugins_list":{
            "elementor":{
                "name":"Elementor",
                "slug":"elementor\/elementor.php",
                "required":true
            },
            "wp-magazine-modules-lite":{
                "name":"WP Magazine Modules Lite",
                "slug":"wp-magazine-modules-lite\/wp-magazine-modules-lite.php",
                "required":true
            }
        }
    },
    "news-portal-pro":{
        "name":"News Portal Pro",
        "theme_slug":"news-portal-pro",
        "version":"1.1.5",
        "theme_description":"Ultimate Magazine WordPress Theme",
        "xml_file":"https:\/\/gitlab.com\/mysterythemes\/themes-demo-pack\/-\/raw\/main\/news-portal\/news-portal-pro\/news-portal-pro.xml",
        "theme_settings":"https:\/\/gitlab.com\/mysterythemes\/themes-demo-pack\/-\/raw\/main\/news-portal\/news-portal-pro\/news-portal-pro-export.dat",
        "widgets_file":"https:\/\/gitlab.com\/mysterythemes\/themes-demo-pack\/-\/raw\/main\/news-portal\/news-portal-pro\/news-portal-pro-widgets.wie",
        "preview_screen":"https:\/\/gitlab.com\/mysterythemes\/themes-demo-pack\/-\/raw\/main\/news-portal\/news-portal-pro\/screenshot.png",
        "preview_url":"https:\/\/demo.mysterythemes.com\/news-portal-pro\/",
        "is_shop":false,
        "theme_type":[
            "premium",
            "blog",
            "magazine"
        ],
        "execution_time": 480,
        "show_on_front":"page",
        "home_title":"Home",
        "blog_title":"",
        "widgets_data_update":{
            "dropdown_categories":{
                "category":{
                    "news_portal_block_posts":{
                        "2":{
                            "block_cat_id":"Sports"
                        },
                        "3":{
                            "block_cat_id":"Health"
                        }
                    }
                }
            },
            "multi_checkbox":{
                "category":{
                    "news_portal_featured_slider":{
                        "2":{
                            "slider_cat_ids":["Lifestyle"],
                            "featured_cat_ids":["Food","Sports","Tech","Travel"]
                        }
                    },
                    "news_portal_featured_posts":{
                        "2":{
                            "block_cat_ids":["Food","Gadget","Health"]
                        }
                    },
                    "news_portal_list_posts":{
                        "3":{
                            "block_cat_ids":["Gadget"]
                        },
                            "4":{"block_cat_ids":["Tech"]
                        }
                    },
                    "news_portal_fullwidth_posts":{
                        "3":{
                            "block_cat_ids":["Travel"]
                        }
                    },
                    "news_portal_carousel":{
                        "2":{
                            "block_cat_ids":["Travel"]
                        }
                    }
                }
            }
        },
        "customizer_data_update": {
            "nav_menu_locations": {
                "news_portal_top_menu":"top menu",
                "news_portal_primary_menu":"primary menu",
                "news_portal_footer_menu":"footer menu"
            }
        },
        "plugins_list":{
            "wpforms-lite":{
                "name":"Contact Form by WPForms",
                "slug":"wpforms-lite\/wpforms.php",
                "required":true
            }
        }
    },
    "news-portal-pro-fashion":{
        "name":"News Portal Pro Fashion",
        "theme_slug":"news-portal-pro-fashion",
        "version":"1.1.5",
        "theme_description":"Just another Mystery Themes Demos site",
        "xml_file":"https:\/\/gitlab.com\/mysterythemes\/themes-demo-pack\/-\/raw\/main\/news-portal\/news-portal-pro-fashion\/news-portal-pro.xml",
        "theme_settings":"https:\/\/gitlab.com\/mysterythemes\/themes-demo-pack\/-\/raw\/main\/news-portal\/news-portal-pro-fashion\/news-portal-pro-export.dat",
        "widgets_file":"https:\/\/gitlab.com\/mysterythemes\/themes-demo-pack\/-\/raw\/main\/news-portal\/news-portal-pro-fashion\/news-portal-pro-widgets.wie",
        "preview_screen":"https:\/\/gitlab.com\/mysterythemes\/themes-demo-pack\/-\/raw\/main\/news-portal\/news-portal-pro-fashion\/screenshot.png",
        "preview_url":"https:\/\/demo.mysterythemes.com\/news-portal-pro-fashion\/",
        "is_shop":false,
        "theme_type":[
            "premium",
            "blog",
            "magazine"
        ],
        "show_on_front":"page",
        "home_title":"Home",
        "blog_title":"",
        "widgets_data_update":{
            "dropdown_categories":{
                "category":{
                    "news_portal_block_posts":{
                        "2":{
                            "block_cat_id":"Men"
                        },
                        "3":{
                            "block_cat_id":"Women"
                        }
                    }
                }
            },
            "multi_checkbox":{
                "category":{
                    "news_portal_featured_posts":{
                        "2":{
                            "block_cat_ids":["Featured"]
                        }
                    },
                    "news_portal_list_posts":{
                        "2":{
                            "block_cat_ids":["girls"]
                        }
                    },
                    "news_portal_fullwidth_posts":{
                        "2":{
                            "block_cat_ids":["summer","Trend"]
                        }
                    }
                }
            }
        },
        "customizer_data_update": {
            "nav_menu_locations": {
                "news_portal_primary_menu": "primary menu"
            }
        },
        "plugins_list":{
            "wpforms-lite":{
                "name":"Contact Form by WPForms",
                "slug":"wpforms-lite\/wpforms.php",
                "required":true
            }
        }
    },
    "news-portal-pro-sports":{
        "name":"News Portal Pro Sports",
        "blog_description":"Ultimate Magazine WordPress Theme",
        "theme_slug":"news-portal-pro-sports",
        "version":"1.1.5",
        "theme_description":"Just another Mystery Themes Demos site",
        "xml_file":"https:\/\/gitlab.com\/mysterythemes\/themes-demo-pack\/-\/raw\/main\/news-portal\/news-portal-pro-sports\/news-portal-pro.xml",
        "theme_settings":"https:\/\/gitlab.com\/mysterythemes\/themes-demo-pack\/-\/raw\/main\/news-portal\/news-portal-pro-sports\/news-portal-pro-export.dat",
        "widgets_file":"https:\/\/gitlab.com\/mysterythemes\/themes-demo-pack\/-\/raw\/main\/news-portal\/news-portal-pro-sports\/news-portal-pro-widgets.wie",
        "preview_screen":"https:\/\/gitlab.com\/mysterythemes\/themes-demo-pack\/-\/raw\/main\/news-portal\/news-portal-pro-sports\/screenshot.png",
        "preview_url":"https:\/\/demo.mysterythemes.com\/news-portal-pro-sports\/",
        "is_shop":false,
        "theme_type":[
            "premium",
            "blog",
            "magazine"
        ],
        "show_on_front":"page",
        "home_title":"Home",
        "blog_title":"Blog",
        "widgets_data_update":{
            "navigation_menus":{
                "nav_menu":{
                    "1":{
                        "nav_menu":"primary"
                    }
                }
            },
            "dropdown_categories":{
                "category":{
                    "news_portal_block_posts":{
                        "2":{
                            "block_cat_id":"sports"
                        }
                    }
                }
            },
            "multi_checkbox":{
                "category":{
                    "news_portal_featured_slider":{
                        "2":{
                             "slider_cat_ids":["sports"],
                            "featured_cat_ids":["Football","racing"]
                        }
                    },
                    "news_portal_list_posts":{
                        "2":{
                            "block_cat_ids":["Basketball","Football"]
                        }
                    },
                    "news_portal_featured_posts":{
                        "3":{
                            "block_cat_ids":["racing"]
                        }
                    },
                    "news_portal_fullwidth_posts":{
                        "3":{
                            "block_cat_ids":["racing","Swimming"]
                        }
                    },
                    "news_portal_carousel":{
                        "2":{
                            "block_cat_ids":["sports"]
                        }
                    }
                }
            }
        },
        "customizer_data_update": {
            "nav_menu_locations": {
                "news_portal_primary_menu": "primary"
            }
        },
        "plugins_list":{
            "wpforms-lite":{
                "name":"Contact Form by WPForms",
                "slug":"wpforms-lite\/wpforms.php",
                "required":true
            }
        }
    },
    "news-portal-pro-blog":{
        "name":"News Portal Pro Blog",
        "theme_slug":"news-portal-pro-blog",
        "version":"1.1.5",
        "theme_description":"Just another Mystery Themes Demos site",
        "xml_file":"https:\/\/gitlab.com\/mysterythemes\/themes-demo-pack\/-\/raw\/main\/news-portal\/news-portal-pro-blog\/news-portal-pro.xml",
        "theme_settings":"https:\/\/gitlab.com\/mysterythemes\/themes-demo-pack\/-\/raw\/main\/news-portal\/news-portal-pro-blog\/news-portal-pro-export.dat",
        "widgets_file":"https:\/\/gitlab.com\/mysterythemes\/themes-demo-pack\/-\/raw\/main\/news-portal\/news-portal-pro-blog\/news-portal-pro-widgets.wie",
        "preview_screen":"https:\/\/gitlab.com\/mysterythemes\/themes-demo-pack\/-\/raw\/main\/news-portal\/news-portal-pro-blog\/screenshot.png",
        "preview_url":"https:\/\/demo.mysterythemes.com\/news-portal-pro-blog\/",
        "is_shop":false,
        "theme_type":[
            "premium",
            "blog",
            "magazine"
        ],
        "show_on_front":"page",
        "home_title":"Home",
        "blog_title":"Blog",
        "widgets_data_update":{
            "navigation_menus":{
                "nav_menu":{
                    "2":{
                        "nav_menu":"primary menu"
                    }
                }
            },
            "multi_checkbox":{
                "category":{
                    "news_portal_slider":{
                        "2":{
                            "slider_cat_ids":["Slider"]
                        }
                    },
                    "news_portal_list_posts":{
                        "2":{
                            "block_cat_ids":["Lifestyle"]
                        }
                    },
                    "news_portal_fullwidth_posts":{
                        "2":{
                            "block_cat_ids":["Photography","Technology","Wildlife"]
                        }
                    },
                    "news_portal_carousel":{
                        "2":{
                            "block_cat_ids":["Food","Photography","Wildlife"]
                        }
                    }
                }
            }
        },
        "customizer_data_update": {
            "nav_menu_locations": {
                "news_portal_primary_menu": "primary menu"
            }
        },
        "plugins_list":{
            "wpforms-lite":{
                "name":"Contact Form by WPForms",
                "slug":"wpforms-lite\/wpforms.php",
                "required":true
            }
        }
    },
    "news-portal-pro-food":{
        "name":"News Portal Pro Food",
        "blog_description":"Just another Mystery Themes Demos site",
        "theme_slug":"news-portal-pro-food",
        "version":"1.1.5",
        "theme_description":"Ultimate Magazine WordPress Theme",
        "xml_file":"https:\/\/gitlab.com\/mysterythemes\/themes-demo-pack\/-\/raw\/main\/news-portal\/news-portal-pro-food\/news-portal-pro.xml",
        "theme_settings":"https:\/\/gitlab.com\/mysterythemes\/themes-demo-pack\/-\/raw\/main\/news-portal\/news-portal-pro-food\/news-portal-pro-export.dat",
        "widgets_file":"https:\/\/gitlab.com\/mysterythemes\/themes-demo-pack\/-\/raw\/main\/news-portal\/news-portal-pro-food\/news-portal-pro-widgets.wie",
        "preview_screen":"https:\/\/gitlab.com\/mysterythemes\/themes-demo-pack\/-\/raw\/main\/news-portal\/news-portal-pro-food\/screenshot.png",
        "preview_url":"https:\/\/demo.mysterythemes.com\/news-portal-pro-food\/",
        "is_shop":false,
        "theme_type":[
            "premium",
            "blog",
            "magazine"
        ],
        "show_on_front":"page",
        "home_title":"Home",
        "blog_title":"",
        "widgets_data_update":{
            "multi_checkbox":{
                "category":{
                    "news_portal_slider":{
                        "2":{
                            "slider_cat_ids":["Slider"]
                        }
                    },
                    "news_portal_list_posts":{
                        "2":{
                            "block_cat_ids":["Drinks","Launch","Salad"]
                        }
                    },
                    "news_portal_fullwidth_posts":{
                        "4":{
                            "block_cat_ids":["Desserts"]
                        },
                        "6":{
                            "block_cat_ids":["Chicken items"]
                        },
                        "7":{
                            "block_cat_ids":["Drinks"]
                        }
                    }
                }
            }
        },
        "customizer_data_update": {
            "nav_menu_locations": {
                "news_portal_primary_menu": "primary menu"
            }
        },
        "plugins_list":{
            "wpforms-lite":{
                "name":"Contact Form by WPForms",
                "slug":"wpforms-lite\/wpforms.php",
                "required":true
            }
        }
    },
    "news-portal-pro-tech":{
        "name":"News Portal Pro Tech",
        "blog_description":"Just another Mystery Themes Demos site",
        "theme_slug":"news-portal-pro-tech",
        "version":"1.1.5",
        "theme_description":"Ultimate Magazine WordPress Theme",
        "xml_file":"https:\/\/gitlab.com\/mysterythemes\/themes-demo-pack\/-\/raw\/main\/news-portal\/news-portal-pro-tech\/news-portal-pro.xml",
        "theme_settings":"https:\/\/gitlab.com\/mysterythemes\/themes-demo-pack\/-\/raw\/main\/news-portal\/news-portal-pro-tech\/news-portal-pro-export.dat",
        "widgets_file":"https:\/\/gitlab.com\/mysterythemes\/themes-demo-pack\/-\/raw\/main\/news-portal\/news-portal-pro-tech\/news-portal-pro-widgets.wie",
        "preview_screen":"https:\/\/gitlab.com\/mysterythemes\/themes-demo-pack\/-\/raw\/main\/news-portal\/news-portal-pro-tech\/screenshot.png",
        "preview_url":"https:\/\/demo.mysterythemes.com\/news-portal-pro-tech\/",
        "is_shop":false,
        "theme_type":[
            "premium",
            "blog",
            "magazine"
        ],
        "show_on_front":"page",
        "home_title":"Home",
        "blog_title":"",
        "widgets_data_update":{
            "multi_checkbox":{
                "category":{
                    "news_portal_carousel":{
                        "2":{
                            "block_cat_ids":["Trending Now"]
                        }
                    },
                    "news_portal_list_posts":{
                        "3":{
                            "block_cat_ids":["Technology"]
                        }
                    },
                    "news_portal_fullwidth_posts":{
                        "2":{
                            "block_cat_ids":["Gadgets"]
                        }
                    }
                }
            }
        },
        "customizer_data_update": {
            "nav_menu_locations": {
                "news_portal_primary_menu": "primary menu",
                "news_portal_footer_menu": "footer menu"
            }
        },
        "plugins_list":{
            "wpforms-lite":{
                "name":"Contact Form by WPForms",
                "slug":"wpforms-lite\/wpforms.php",
                "required":true
            }
        }
    },
    "news-portal-pro-illustration":{
        "name":"News Portal Pro Illustration",
        "blog_description":"Just another Mystery Themes Demos site",
        "theme_slug":"news-portal-pro-illustration",
        "version":"1.1.5",
        "theme_description":"Ultimate Magazine WordPress Theme",
        "xml_file":"https:\/\/gitlab.com\/mysterythemes\/themes-demo-pack\/-\/raw\/main\/news-portal\/news-portal-pro-illustration\/news-portal-pro.xml",
        "theme_settings":"https:\/\/gitlab.com\/mysterythemes\/themes-demo-pack\/-\/raw\/main\/news-portal\/news-portal-pro-illustration\/news-portal-pro-export.dat",
        "widgets_file":"https:\/\/gitlab.com\/mysterythemes\/themes-demo-pack\/-\/raw\/main\/news-portal\/news-portal-pro-illustration\/news-portal-pro-widgets.wie",
        "preview_screen":"https:\/\/gitlab.com\/mysterythemes\/themes-demo-pack\/-\/raw\/main\/news-portal\/news-portal-pro-illustration\/screenshot.png",
        "preview_url":"https:\/\/preview.mysterythemes.com\/news-portal-pro-illustration\/",
        "is_shop":false,
        "theme_type":[
            "premium",
            "blog",
            "magazine"
        ],
        "show_on_front":"page",
        "home_title":"home",
        "blog_title":"Blog",
        "widgets_data_update":{
            "dropdown_categories":{
                "category":{
                    "news_portal_block_posts":{
                        "2":{
                            "block_cat_id":"Services"
                        }
                    }
                }
            },
            "multi_checkbox":{
                "category":{
                    "news_portal_featured_posts":{
                        "2":{
                            "block_cat_ids":["Blog","Courses","Services"]
                        }
                    },
                    "news_portal_featured_posts":{
                        "3":{
                            "block_cat_ids":["Services","Staff"]
                        }
                    },
                    "news_portal_carousel":{
                        "3":{
                            "block_cat_ids":["Courses,Services"]
                        }
                    }
                }
            }
        },
        "customizer_data_update": {
            "nav_menu_locations": {
                "news_portal_top_menu": "top-menu",
                "news_portal_primary_menu": "front menu"
            }
        },
        "plugins_list":{}
    },
    "news-portal-pro-skynews":{
        "name":"News Portal Pro Skynews",
        "blog_description":"Just another Mystery Themes Demos site",
        "theme_slug":"news-portal-pro-skynews",
        "version":"1.5.4",
        "theme_description":"Ultimate Magazine WordPress Theme",
        "xml_file":"https:\/\/gitlab.com\/mysterythemes\/themes-demo-pack\/-\/raw\/main\/news-portal\/news-portal-pro-skynews\/news-portal-pro.xml",
        "theme_settings":"https:\/\/gitlab.com\/mysterythemes\/themes-demo-pack\/-\/raw\/main\/news-portal\/news-portal-pro-skynews\/news-portal-pro-export.dat",
        "widgets_file":"https:\/\/gitlab.com\/mysterythemes\/themes-demo-pack\/-\/raw\/main\/news-portal\/news-portal-pro-skynews\/news-portal-pro-widgets.wie",
        "preview_screen":"https:\/\/gitlab.com\/mysterythemes\/themes-demo-pack\/-\/raw\/main\/news-portal\/news-portal-pro-skynews\/screenshot.jpg",
        "preview_url":"https:\/\/preview.mysterythemes.com\/news-portal-pro-skynews\/",
        "is_shop":false,
        "theme_type":[
            "premium",
            "blog",
            "magazine"
        ],
        "execution_time": 480,
        "show_on_front":"page",
        "home_title":"Home",
        "blog_title":"",
        "customizer_data_update": {
            "nav_menu_locations": {
                "news_portal_primary_menu": "Main menu"
            }
        },
        "plugins_list":{
            "elementor":{
                "name":"Elementor",
                "slug":"elementor\/elementor.php",
                "required":true
            },
            "wp-magazine-modules-lite":{
                "name":"WP Magazine Modules Lite",
                "slug":"wp-magazine-modules-lite\/wp-magazine-modules-lite.php",
                "required":true
            }
        }
    }
}